{
  "responseStatus": "PRODUCT_FOUND_RESPONSE",
  "responseMessage": "Product successfully found!",
  "sortStrategy": "relevanceblender",
  "domainCode": "com",
  "keyword": "mens jeans",
  "numberOfProducts": 48,
  "numberOfSponsoredProducts": 0,
  "resultCount": 50000,
  "currentPage": 1,
  "lastPage": 7,
  "selectedCategory": "aps",
  "foundSponsoredProducts": [],
  "foundProducts": [
    "B0018QS5HU",
    "B07YH2ZZVQ",
    "B0H5CGSLFG",
    "B0018OFKDY",
    "B07LGLJFFK",
    "B073V3TQHK",
    "B07YH3T66R",
    "B07YH3NLZ1",
    "B074KL8F8N",
    "B07336HLSP",
    "B09K1PMWR6",
    "B07LGWQWXM",
    "B07BJKPWL2",
    "B07HNY6YGR",
    "B073QX15SG",
    "B0DX23WH43",
    "B07MWT32P1",
    "B07YH2PVLH",
    "B0F62SW8CL",
    "B0DYV3PBL8",
    "B07BJKY74R",
    "B01CTPRAF6",
    "B0DX22BHDW",
    "B078HF4WSC",
    "B07CHR36XX",
    "B07LGW7C1F",
    "B0008EOG58",
    "B07BJL4TYW",
    "B08YP52R4Y",
    "B07RXW7669",
    "B099PMX1L3",
    "B014K8EHZQ",
    "B0DX266Y62",
    "B0FT7VWHYB",
    "B09JYJP4NR",
    "B0FWT92RX1",
    "B07GZQCSZ3",
    "B00A74I182",
    "B074KK9KCH",
    "B075MY141Q",
    "B0007CKJQQ",
    "B0FBX26DKF",
    "B098QPTCF8",
    "B0DR9XVJCG",
    "B0D6JV3NXC",
    "B078M6S332",
    "B0FDS9YNVY",
    "B09HS5WFZN"
  ],
  "searchProductDetails": [
    {
      "productDescription": "Men's 505 Regular Fit Jeans (Also Available in Big & Tall)",
      "asin": "B0018QS5HU",
      "countReview": 30100,
      "imgUrl": "https://m.media-amazon.com/images/I/51XquqDhOgL._AC_UL320_.jpg",
      "price": 36.42,
      "retailPrice": 74.95,
      "productRating": "4.5 out of 5 stars",
      "prime": false,
      "dpUrl": "/Levis-Regular-Medium-Stonewash-34Wx32L/dp/B0018QS5HU/ref=sr_1_1?dib=eyJ2IjoiMSJ9.BW9779OinsAHkcH5b0VNU86mWRpYFXjTfWPYCkmXSLW-BhCfVVdr33qGKuTTARqjSixndH6WOyq67-6ymfVhCmTL7FDPGvWrkP32_7xbt9HYx9oCuORl0Hyt_feaMQUh8eYTgaZfQZrDZ00GR7HDzYa5WUFGU8om15nNziD1ttzUzc_qFg2z7Jbbz32-_DYi7QC5C8soun2Tra6MJAniOjjJVO2yLlR7Xy94Ztwc37BEzQ1DjWTsqMeDpoxilh5KAIOy7dE9NRwIPU-owVvKHFcS5WS-HxRNXoEsdhwZBzo.mjE4DzhkdQkN8PXIvBEX0eN99co3bOrF4nRfDNTeFPY&dib_tag=se&keywords=mens+jeans&qid=1783748663&sr=8-1",
      "series": null,
      "deliveryMessage": "Join Prime to get FREE delivery Tomorrow, Jul 11",
      "variations": [],
      "productDetails": [],
      "salesVolume": "1K+ bought in past month",
      "manufacturer": "Levi's",
      "secondaryOffer": 0.0
    },
    {
      "productDescription": "Men's Comfort Flex Waist Relaxed Fit Jean",
      "asin": "B07YH2ZZVQ",
      "countReview": 62791,
      "imgUrl": "https://m.media-amazon.com/images/I/61GqCa589gL._AC_UL320_.jpg",
      "price": 33.02,
      "retailPrice": 0.0,
      "productRating": "4.6 out of 5 stars",
      "prime": false,
      "dpUrl": "/Wrangler-Authentics-Relaxed-Comfort-Waist/dp/B07YH2ZZVQ/ref=sr_1_2?dib=eyJ2IjoiMSJ9.BW9779OinsAHkcH5b0VNU86mWRpYFXjTfWPYCkmXSLW-BhCfVVdr33qGKuTTARqjSixndH6WOyq67-6ymfVhCmTL7FDPGvWrkP32_7xbt9HYx9oCuORl0Hyt_feaMQUh8eYTgaZfQZrDZ00GR7HDzYa5WUFGU8om15nNziD1ttzUzc_qFg2z7Jbbz32-_DYi7QC5C8soun2Tra6MJAniOjjJVO2yLlR7Xy94Ztwc37BEzQ1DjWTsqMeDpoxilh5KAIOy7dE9NRwIPU-owVvKHFcS5WS-HxRNXoEsdhwZBzo.mjE4DzhkdQkN8PXIvBEX0eN99co3bOrF4nRfDNTeFPY&dib_tag=se&keywords=mens+jeans&qid=1783748663&sr=8-2",
      "series": null,
      "deliveryMessage": "Join Prime to get FREE delivery Tomorrow, Jul 11",
      "variations": [],
      "productDetails": [],
      "salesVolume": "200+ bought in past month",
      "manufacturer": "Wrangler Authentics",
      "secondaryOffer": 0.0
    },
    {
      "productDescription": "Men's Acid Wash Straight Leg Stacked Jeans, Snowflake Tie Dye Stretch Denim, Y2K Hip Hop Streetwear Baggy Pants",
      "asin": "B0H5CGSLFG",
      "countReview": 0,
      "imgUrl": "https://m.media-amazon.com/images/I/71+JbCbHX6L._AC_UL320_.jpg",
      "price": 29.98,
      "retailPrice": 35.98,
      "productRating": null,
      "prime": false,
      "dpUrl": "/Straight-Stacked-Snowflake-Stretch-Streetwear/dp/B0H5CGSLFG/ref=sr_1_3?dib=eyJ2IjoiMSJ9.BW9779OinsAHkcH5b0VNU86mWRpYFXjTfWPYCkmXSLW-BhCfVVdr33qGKuTTARqjSixndH6WOyq67-6ymfVhCmTL7FDPGvWrkP32_7xbt9HYx9oCuORl0Hyt_feaMQUh8eYTgaZfQZrDZ00GR7HDzYa5WUFGU8om15nNziD1ttzUzc_qFg2z7Jbbz32-_DYi7QC5C8soun2Tra6MJAniOjjJVO2yLlR7Xy94Ztwc37BEzQ1DjWTsqMeDpoxilh5KAIOy7dE9NRwIPU-owVvKHFcS5WS-HxRNXoEsdhwZBzo.mjE4DzhkdQkN8PXIvBEX0eN99co3bOrF4nRfDNTeFPY&dib_tag=se&keywords=mens+jeans&qid=1783748663&sr=8-3",
      "series": null,
      "deliveryMessage": "FREE delivery Jul 28 - Aug 23 on $35 of items shipped by Amazon",
      "variations": [],
      "productDetails": [],
      "salesVolume": "New on Amazon in past month",
      "manufacturer": "YEOU",
      "secondaryOffer": 0.0
    }
  ],
  "categories": [],
  "starFilterParam": {},
  "similarKeywords": [
    {
      "keyword": "mens pants",
      "url": null
    },
    {
      "keyword": "mens jeans slim fit",
      "url": null
    },
    {
      "keyword": "mens shirts",
      "url": null
    },
    {
      "keyword": "mens jeans bootcut",
      "url": null
    },
    {
      "keyword": "mens jeans relaxed fit",
      "url": null
    },
    {
      "keyword": "mens shoes",
      "url": null
    }
  ],
  "browseNode": null,
  "nodeHierarchy": null
}
